1 819.681
12 799.668
123 814.114
1234 808.785
12345 809.516
123456 809.577
2 814.946
23 824.284
234 800.349
2345 824.965
23456 803.559
234567 806.603
3 818.843
4 815.602
34 814.866
345 802.239
3456 819.471
34567 821.231
345678 810.04
456789 798.21
