1 810.624
12 797.301
123 800.59
1234 803.514
12345 814.689
123456 800.852
2 811.503
23 804.597
234 800.257
2345 808.321
23456 809.753
234567 809.188
3 819.121
4 812.969
34 814.034
345 817.043
3456 828.434
34567 807.526
345678 811.446
456789 790.074
