____ __________________________________  _____   ________   		
|    |   \__    ___/\______   \______   \/     \  \_____  \ 
|    |   / |    |    |       _/|     ___/  \ /  \  /   |   \ 	
|    |  /  |    |    |    |   \|    |  /    Y    \/    |    \	
|______/   |____|    |____|_  /|____|  \____|__  /\_______  /	
                            \/                 \/         \/ 	
>>> UTRP Multi Objective C++ Approach by UTFSM Students :D <<< 
The passed parameters are:
	0:6:2:8
solution 1
solution 2
solution 3
solution 4
solution 5
solution 6
solution 7
solution 8
solution 9
solution 10
solution 11
solution 12
solution 13
solution 14
solution 15
solution 16
solution 17
solution 18
solution 19
solution 20
solution 21
solution 22
solution 23
solution 24
solution 25
solution 26
solution 27
solution 28
solution 29
solution 30
solution 31
solution 32
solution 33
solution 34
solution 35
solution 36
solution 37
solution 38
solution 39
solution 40
solution 41
solution 42
solution 43
solution 44
solution 45
solution 46
solution 47
solution 48
solution 49
solution 50
solution 51
solution 52
solution 53
solution 54
solution 55
solution 56
solution 57
solution 58
solution 59
solution 60
solution 61
solution 62
solution 63
solution 64
solution 65
solution 66
solution 67
solution 68
solution 69
solution 70
solution 71
solution 72
solution 73
solution 74
solution 75
solution 76
solution 77
solution 78
solution 79
solution 80
solution 81
solution 82
solution 83
solution 84
solution 85
solution 86
solution 87
solution 88
solution 89
solution 90
solution 91
solution 92
solution 93
solution 94
solution 95
solution 96
solution 97
solution 98
solution 99
solution 100
generacion 1
hypervolumen: 691.849
generacion 2
hypervolumen: 696.933
generacion 3
hypervolumen: 704.865
generacion 4
hypervolumen: 707.739
generacion 5
hypervolumen: 708.805
generacion 6
hypervolumen: 708.805
generacion 7
hypervolumen: 737.19
generacion 8
hypervolumen: 738.844
generacion 9
hypervolumen: 738.844
generacion 10
hypervolumen: 738.844
generacion 11
hypervolumen: 739.444
generacion 12
hypervolumen: 739.444
generacion 13
hypervolumen: 739.444
generacion 14
hypervolumen: 739.444
generacion 15
hypervolumen: 739.444
generacion 16
hypervolumen: 739.444
generacion 17
hypervolumen: 739.509
generacion 18
hypervolumen: 739.509
generacion 19
hypervolumen: 739.579
generacion 20
hypervolumen: 739.579
generacion 21
hypervolumen: 739.785
generacion 22
hypervolumen: 742.999
generacion 23
hypervolumen: 743.953
generacion 24
hypervolumen: 745.898
generacion 25
hypervolumen: 745.898
generacion 26
hypervolumen: 745.898
generacion 27
hypervolumen: 745.898
generacion 28
hypervolumen: 745.898
generacion 29
hypervolumen: 745.898
generacion 30
hypervolumen: 745.898
generacion 31
hypervolumen: 746.245
generacion 32
hypervolumen: 746.245
generacion 33
hypervolumen: 746.245
generacion 34
hypervolumen: 746.245
generacion 35
hypervolumen: 746.245
generacion 36
hypervolumen: 746.245
generacion 37
hypervolumen: 746.245
generacion 38
hypervolumen: 746.245
generacion 39
hypervolumen: 746.245
generacion 40
hypervolumen: 746.245
generacion 41
hypervolumen: 746.245
generacion 42
hypervolumen: 746.293
generacion 43
hypervolumen: 746.341
generacion 44
hypervolumen: 746.341
generacion 45
hypervolumen: 748.48
generacion 46
hypervolumen: 748.48
generacion 47
hypervolumen: 748.48
generacion 48
hypervolumen: 748.48
generacion 49
hypervolumen: 748.48
generacion 50
hypervolumen: 748.48
generacion 51
hypervolumen: 748.48
generacion 52
hypervolumen: 748.48
generacion 53
hypervolumen: 748.48
generacion 54
hypervolumen: 748.48
generacion 55
hypervolumen: 748.48
generacion 56
hypervolumen: 748.48
generacion 57
hypervolumen: 748.48
generacion 58
hypervolumen: 748.48
generacion 59
hypervolumen: 748.48
generacion 60
hypervolumen: 748.48
generacion 61
hypervolumen: 748.48
generacion 62
hypervolumen: 748.48
generacion 63
hypervolumen: 748.48
generacion 64
hypervolumen: 748.48
generacion 65
hypervolumen: 748.48
generacion 66
hypervolumen: 748.48
generacion 67
hypervolumen: 748.48
generacion 68
hypervolumen: 748.48
generacion 69
hypervolumen: 748.48
generacion 70
hypervolumen: 748.48
generacion 71
hypervolumen: 748.48
generacion 72
hypervolumen: 748.48
generacion 73
hypervolumen: 748.48
generacion 74
hypervolumen: 748.48
generacion 75
hypervolumen: 748.48
generacion 76
hypervolumen: 748.48
generacion 77
hypervolumen: 748.48
generacion 78
hypervolumen: 748.48
generacion 79
hypervolumen: 748.48
generacion 80
hypervolumen: 748.48
generacion 81
hypervolumen: 748.48
generacion 82
hypervolumen: 748.48
generacion 83
hypervolumen: 748.48
generacion 84
hypervolumen: 748.48
generacion 85
hypervolumen: 749.193
generacion 86
hypervolumen: 749.193
generacion 87
hypervolumen: 749.193
generacion 88
hypervolumen: 749.193
generacion 89
hypervolumen: 749.193
generacion 90
hypervolumen: 749.193
generacion 91
hypervolumen: 749.193
generacion 92
hypervolumen: 749.193
generacion 93
hypervolumen: 749.437
generacion 94
hypervolumen: 749.729
generacion 95
hypervolumen: 749.729
generacion 96
hypervolumen: 749.729
generacion 97
hypervolumen: 749.729
generacion 98
hypervolumen: 752.805
generacion 99
hypervolumen: 752.805
generacion 100
hypervolumen: 752.805
generacion 101
hypervolumen: 752.805
generacion 102
hypervolumen: 752.805
generacion 103
hypervolumen: 752.805
generacion 104
hypervolumen: 752.805
generacion 105
hypervolumen: 752.805
generacion 106
hypervolumen: 752.805
generacion 107
hypervolumen: 752.805
generacion 108
hypervolumen: 752.805
generacion 109
hypervolumen: 752.805
generacion 110
hypervolumen: 752.854
generacion 111
hypervolumen: 752.854
generacion 112
hypervolumen: 752.854
generacion 113
hypervolumen: 752.854
generacion 114
hypervolumen: 752.854
generacion 115
hypervolumen: 752.854
generacion 116
hypervolumen: 755.339
generacion 117
hypervolumen: 755.339
generacion 118
hypervolumen: 755.339
generacion 119
hypervolumen: 755.339
generacion 120
hypervolumen: 757.298
generacion 121
hypervolumen: 757.298
generacion 122
hypervolumen: 757.314
generacion 123
hypervolumen: 757.314
generacion 124
hypervolumen: 757.314
generacion 125
hypervolumen: 757.314
generacion 126
hypervolumen: 757.314
generacion 127
hypervolumen: 757.314
generacion 128
hypervolumen: 757.314
generacion 129
hypervolumen: 763.769
generacion 130
hypervolumen: 763.769
generacion 131
hypervolumen: 763.769
generacion 132
hypervolumen: 763.769
generacion 133
hypervolumen: 763.769
generacion 134
hypervolumen: 763.769
generacion 135
hypervolumen: 763.769
generacion 136
hypervolumen: 763.769
generacion 137
hypervolumen: 763.769
generacion 138
hypervolumen: 763.769
generacion 139
hypervolumen: 763.769
generacion 140
hypervolumen: 763.769
generacion 141
hypervolumen: 763.769
generacion 142
hypervolumen: 763.769
generacion 143
hypervolumen: 763.769
generacion 144
hypervolumen: 763.769
generacion 145
hypervolumen: 763.769
generacion 146
hypervolumen: 763.769
generacion 147
hypervolumen: 763.769
generacion 148
hypervolumen: 763.769
generacion 149
hypervolumen: 763.769
generacion 150
hypervolumen: 763.769
